^D:\MYDOCUMENTS\APP.SOURCETREE\IIT-CS411-ASSIGNMENT5\ASS5\MODELVIEWER\MAIN.CPP
D:\MYDOCUMENTS\APP.SOURCETREE\IIT-CS411-ASSIGNMENT5\ASS5\MODELVIEWER\DEBUG\MAIN.OBJ
D:\MYDOCUMENTS\APP.SOURCETREE\IIT-CS411-ASSIGNMENT5\ASS5\MODELVIEWER\DEBUG\VC110.PDB
